# Total Phase Data Center(tm) v6.53,,,,,,,,
# (c) 2005-2013 Total Phase Inc.,,,,,,,,
# www.totalphase.com,,,,,,,,
#,,,,,,,,
# ,,,,,,,,
#,,,,,,,,
# Level,Index,m:s.ms.us.ns,Dur,Len,Err,Record,Data,
0,0,0:00.000.000.000,,,,Capture started,[07/27/13 03:25:24],
0,1,0:01.817.780.200,24.400 us,1 B,,Transaction,B000,
0,4,0:01.818.067.700,14.100 us,1 B,,Transaction,E000,
0,7,0:10.132.295.100,14.800 us,2 B,,Transaction,4000 0000,
0,10,0:28.786.588.000,18.100 us,2 B,,Transaction,4040 0000,
0,13,0:54.230.053.600,18.900 us,2 B,,Transaction,4F40 FF00,
0,16,1:04.190.333.300,15.100 us,2 B,,Transaction,404F 00FF,
0,19,1:11.806.081.700,15.300 us,2 B,,Transaction,4F40 FF00,
0,22,1:17.917.270.300,15.900 us,2 B,,Transaction,484F 00FF,
0,25,1:31.867.821.200,27.100 us,2 B,,Transaction,4048 0000,
0,28,1:36.478.152.300,27.000 us,2 B,,Transaction,4F40 FF00,
0,31,1:40.768.311.000,17.100 us,2 B,,Transaction,484F 00FF,
0,34,3:10.550.525.200,16.700 us,2 B,,Transaction,4048 0000,
0,37,3:32.750.723.700,20.800 us,2 B,,Transaction,4F40 FF00,
0,40,3:40.217.279.000,16.400 us,2 B,,Transaction,484F 00FF,
0,43,3:49.978.799.100,17.700 us,2 B,,Transaction,4848 0000,
0,46,4:24.384.677.400,15.500 us,2 B,,Transaction,4048 0000,
0,49,4:28.916.639.100,17.100 us,2 B,,Transaction,4F40 FF00,
0,52,4:38.069.423.700,17.900 us,2 B,,Transaction,484F 00FF,
0,55,5:30.284.123.200,,,,Capture stopped,[07/27/13 03:30:55],
